{   
    "packages": {
        "standart": {"name": "Standart","normal": ["Глубокое бикини","Голени с коленями","Подмышечные впадини"], "bold": []},
        "standart+": {"name": "Standart+","normal": ["Глубокое бикини","Голени с коленями","Подмышечные впадини"], "bold": ["Руки до локтя"]},
        "optima": {"name": "Optima","normal": ["Глубокое бикини","Подмышечные впадини"], "bold": ["Ноги полностью","Руки полностью","Верхняя губа"]},
        "total": {"name": "Total","normal": ["Глубокое бикини","Ноги полностью","Подмышечные впадини","Руки полностью","Верхняя губа"], "bold": ["Поясница","Белая линия живота"]}
    },
    "carbonPackages": {
        "first": {"name": "Зона:","normal": [ "Лицо","Шея" ], "bold": []},
        "second": {"name": "Зона:","normal": [ "Лицо","Шея","Декольте"], "bold": []}
    },
    "contacts": {
        "fillForm": "Заполните форму, мы вам перезвоним",
        "inputName": "Введите имя",
        "inputPhone": "Телефон",
        "send": "Отправить",
        "phoneInput": {
            "countrySelectorLabel": "Код страны",
            "countrySelectorError": "Неправельно набран номер",
            "phoneNumberLabel": "Телефон",
            "example": "Пример :"
        },
        "contact": {
            
            "kamyahec": {
                "tel": "+38 (067) 787-52-52",
                "address": "Адресс: бульвар Дружбы Народов, 13, kamyahec",
                "mail": "laserestetic@gmail.com ",
                "instagram": "laserestetic_kamyahec",
                "copyright": "LASERESTETIC 2014-2020 Все права защищены",
                "times": "no data"
            },
            "kiev": {
                "tel": "+38 (067) 787-50-50",
                "address": "Адресс: бульвар Дружбы Народов, 13, Киев",
                "mail": "laserestetic@gmail.com ",
                "instagram": "laserestetic_kyiv",
                "copyright": "LASERESTETIC 2014-2020 Все права защищены",
                "times": "no data"
            }
        }
    },
    "carbonList": [
        "Выравнивание кожного тона и рельефа после воспалений и акне",
        "Избавление от жирного блеска, высыпаний и акне",
        "Глубокая очистка и отшелушивание кожи",
        "Сужение и очищение пор"
    ],
    "articles": {
        "title": "Полезные статьи"
    },
    "feed": {
        "left": "Отзывы клиентов",
        "right": "Результаты процедур",
        "title": "Отзывы и результаты процедур"
    },
    "tatoo": {
        "tableft": "Татуировки",
        "tabright": "Перманентный татуаж",
        "mono": "Монохромное тату",
        "color": "Цветное тату",
        "poli": "Несолько импульсов, мушка",
        "fullprocedur": "Полный курс в среднем 4-5 процедур",
        "minimumpain": "Минимальные болевые ощущения",
        "firstresult": "Первый результат после 1 сеанса спустя 1,5-2 месяца",
        "withoutscars": "Без повреждений кожного покрова, шрамов и рубцов"
    },
    "navigation": {
        "home:home": "Главная",
        "home:discount": "Акции",
        "home:price": "Услуги и цены",
        "home:blog": "Блог",
        "home:tech": "Оборудование",
        "home:feed": "Отзывы",
        "blog": "Блог",
        "home:contacts": "Контакты",
        "askCall": "Заказать звонок"
    },
    "equipment": {
        "d-las": {
            "name": "Диодный лазер премиум класса Medicalaser D-Las 120 mix: ",
            "benefits": [
                { "title": "Эффективно", "discription": "2 волны излучения, 755 и 808 нм,️ позволяют удалять тонкие/светлые и толстые/темные волосы" },
                { "title": "Безопасно", "discription": "Воздействие  на волосяной фолликул, не затрагивая другие ткани, лимфоузлы и органы" },
                { "title": "Без  сильной боли", "discription": "Легкое покалывание благодаря современной системе охлаждения манипулы лазера" },
                { "title": "Экономия времени", "discription": "Обработка участков разного размера за короткий промежуток времени." },
                { "title": "Долговечно", "discription": "После окончания курса рекомендуются однократные профилактические процедуры, поскольку при неизменном гормональном фоне фолликул, как правило, не восстанавливается." }
            ]
        },
        "pico-light": {
            "name": "Пикосекундный неодимовый лазер Pico-Light 10 от Medicalaser",
            "benefits": [
                { "title": "Эффективно", "discription": "Удобная и высокоточная манипула дает возможность удалять  мелкие детали татуировок" },
                { "title": "Без  сильной боли", "discription": "Мощные короткие импульсы позволяют удалять тату практически без боли" },
                { "title": "Безопасно", "discription": "Сеансы проходят бережно, не травмируя кожу, реабилитационный период сведен к минимум или отсутствует" }
            ]
        }
    },
    "helpers": {
        "equipmenttitle": "Оборудование",
        "superFast": "Быстро - 45 минут",
        "noreabilitation": "Нет периода реабилитации, можно проводить круглый год",
        "supernopain": "Абсолютно безболезненно",
        "courseterm": "Полный курс 5-6 процедур, периодичность 5-7 дней",
        "lazerHeals": "Лазерное омоложение",
        "deleteMarks": "Удаление пигментных пятен",
        "carbonPilling": "Карбоновый пилинг",
        "from": "от",
        "signcall": "Записаться",
        "UAH": "Грн",
        "fast": "Быстро",
        "comfort": "Комфортно",
        "nopain": "Без боли",
        "avalibel": "Доступно",
        "zone": "Зона",
        "price": "Цена",
        "time": "Время"
    },
    "services": {
        "title": "Наши цены на услуги",
        "parts": {
            "face": {
                "title": "Полный курс  состоит из 6-10 процедур Уже после первого сеанса уйдет 10-20% волос",
                "zone": "Зона лица",
                "disctiption": "Лазерная эпиляция - это универсальный метод удаления волос. Подходит практически каждому, с легкостью решая  вопросы нежелательной растительности, раздражения и вросших волос."
            },
            "armpit": {
                "title": "Полный курс  состоит из 6-10 процедур Уже после первого сеанса уйдет 10-20% волос",
                "zone": "Подмышечная область",
                "disctiption": "Лазерная эпиляция - это универсальный метод удаления волос. Подходит практически каждому, с легкостью решая  вопросы нежелательной растительности, раздражения и вросших волос."
            },
            "breast": {
                "title": "Полный курс  состоит из 6-10 процедур Уже после первого сеанса уйдет 10-20% волос",
                "zone": "Зона груди",
                "disctiption": "Лазерная эпиляция - это универсальный метод удаления волос. Подходит практически каждому, с легкостью решая  вопросы нежелательной растительности, раздражения и вросших волос."
            },
            "forearm": {
                "title": "Полный курс  состоит из 6-10 процедур Уже после первого сеанса уйдет 10-20% волос",
                "zone": "Передплечье",
                "disctiption": "Лазерная эпиляция - это универсальный метод удаления волос. Подходит практически каждому, с легкостью решая  вопросы нежелательной растительности, раздражения и вросших волос."
            },
            "groin": {
                "title": "Полный курс  состоит из 6-10 процедур Уже после первого сеанса уйдет 10-20% волос",
                "zone": "Промежность",
                "disctiption": "Лазерная эпиляция - это универсальный метод удаления волос. Подходит практически каждому, с легкостью решая  вопросы нежелательной растительности, раздражения и вросших волос."
            },
            "stomach": {
                "title": "Полный курс  состоит из 6-10 процедур Уже после первого сеанса уйдет 10-20% волос",
                "zone": "Живот",
                "disctiption": "Лазерная эпиляция - это универсальный метод удаления волос. Подходит практически каждому, с легкостью решая  вопросы нежелательной растительности, раздражения и вросших волос."
            },
            "wrist": {
                "title": "Полный курс  состоит из 6-10 процедур Уже после первого сеанса уйдет 10-20% волос",
                "zone": "Кисть",
                "disctiption": "Лазерная эпиляция - это универсальный метод удаления волос. Подходит практически каждому, с легкостью решая  вопросы нежелательной растительности, раздражения и вросших волос."
            }
        },
        "tabs": {
            "lazer": "Лазерная эпиляция",
            "tatoodelete": "Удаление тату и татуажа",
            "cosmetology": "Лазерная косметология"
        },
        "sexs": {
            "man": "Для мужчин",
            "woman": "Для женщин"
        },
        "additional": {
            "zone": "Выбрать зону",
            "packadge": "Акционные пакеты"
        }
    },
    "promo": {
        "title": "Лазерная эпиляция и косметология",
        "discription": "Территория красоты и женственности. Быстро и комфортно сделаем Вашу кожу чистой и гладкой",
        "lookAtCatlogue": "Смотреть каталог услуг"
    },
    "carbonNames": {
        "face": "Лицо",
        "neck": "Шея",
        "hip": "Бедро",
        "arm": "Кисть",
        "breast": "Декольте"
    },
    "discount": {
        "title": "Лазерная эпиляция и косметология",
        "discription": "Территория красоты и женственности. Быстро и комфортно сделаем Вашу кожу чистой и гладкой"
    },
    "sites": [{
        "key": "kiev",
        "text": "Киев"
    },{
        "key": "kamyahec",
        "text": "Борисполь"
    }]
}