{   
    "packages": [
        {"key": "standart", "oldPrice": "2000", "price": "1500"},
        {"key": "standart+", "oldPrice": "2200", "price": "1800"},
        {"key": "optima", "oldPrice": "3200", "price": "2800"},
        {"key": "total", "oldPrice": "4000", "price": "3000"}
    ],
    "carbonPackages": [
        {"key": "first", "oldPrice": "940", "price": "890"},
        {"key": "second", "oldPrice": "1390", "price": "1190"}
    ],
    "man": {
        "face": {"price": "123", "time": "234"},
        "armpit": {"price": "234", "time": "542"},
        "breast": {"price": "234", "time": "656"},
        "forearm": {"price": "434", "time": "3434"},
        "groin": {"price": "343", "time": "234"},
        "stomach": {"price": "2342", "time": "2342"},
        "wrist": {"price": "23423", "time": "2433"}
    }, 
    "tatoo": {
        "mono": [
            { "size": "1,1", "price": "250" },
            { "size": "3,3", "price": "500" },
            { "size": "5,5", "price": "700" },
            { "size": "10,10", "price": "1200" }
        ],
        "color": [
            { "size": "1,1", "price": "350" },
            { "size": "3,3", "price": "600" },
            { "size": "5,5", "price": "800" },
            { "size": "10,10", "price": "1500" }
        ],
        "poli": [
            { "size": "1,1", "price": "250" }
        ]
    },
    "woman": {
        "face": {"price": "245", "time": "768"},
        "armpit": {"price": "678", "time": "656"},
        "breast": {"price": "467", "time": "455"},
        "forearm": {"price": "453", "time": "4643"},
        "groin": {"price": "345", "time": "565"},
        "stomach": {"price": "7776", "time": "565"},
        "wrist": {"price": "4545", "time": "433"}
    },
    "carbonPrices": {
        "face": {"price": "590", "time": "__"},
        "neck": {"price": "678", "time": "__"},
        "hip": {"price": "333", "time": "__"},
        "arm": {"price": "444", "time": "__"},
        "breast": {"price": "345", "time": "__"}
    }
}